…
      $summary
      $summary$nsig
      # A tibble: 181 x 3
         taxa                             ReportedAntibioticUsage DaysSinceExperimen~1
         <chr>                                              <int>                <int>
       1 4b5eeb300368260019c1fbc7a3c718fc                       0                    0
       2 fe30ff0f71a38a39cf1717ec2be3a2fc                       0                    0
       3 868528ca947bc57b69ffdf83e6b73bae                       0                    0
       4 154709e160e8cada6bfb21115acc80f5                       0                    0
       5 1d2e5f3444ca750c85302ceee2473331                       0                    0
       6 0305a4993ecf2d8ef4149fdfc7592603                       0                    0
       7 cb2fe0146e2fbcb101050edb996a0ee2                       0                    0
       8 997056ba80681bbbdd5d09aa591eadc0                       0                    0
       9 bfbed36e63b69fec4627424163d20118                       0                    0
      10 90d32ffe026535b392c0bad850f213c4                       0                    0
      # ... with 171 more rows, and abbreviated variable name
      #   1: DaysSinceExperimentStart
      
      $summary$pvalue
      # A tibble: 181 x 3
         taxa                             ReportedAntibioticUsage DaysSinceExperimen~1
         <chr>                            <list>                  <list>              
       1 4b5eeb300368260019c1fbc7a3c718fc <dbl [1]>               <dbl [1]>           
       2 fe30ff0f71a38a39cf1717ec2be3a2fc <dbl [1]>               <dbl [1]>           
       3 868528ca947bc57b69ffdf83e6b73bae <dbl [1]>               <dbl [1]>           
       4 154709e160e8cada6bfb21115acc80f5 <dbl [1]>               <dbl [1]>           
       5 1d2e5f3444ca750c85302ceee2473331 <dbl [1]>               <dbl [1]>           
       6 0305a4993ecf2d8ef4149fdfc7592603 <dbl [1]>               <dbl [1]>           
       7 cb2fe0146e2fbcb101050edb996a0ee2 <dbl [1]>               <dbl [1]>           
       8 997056ba80681bbbdd5d09aa591eadc0 <dbl [1]>               <dbl [1]>           
       9 bfbed36e63b69fec4627424163d20118 <dbl [1]>               <dbl [1]>           
      10 90d32ffe026535b392c0bad850f213c4 <dbl [1]>               <dbl [1]>           
      # ... with 171 more rows, and abbreviated variable name
      #   1: DaysSinceExperimentStart
      
      $summary$qvalue
      # A tibble: 181 x 3
         taxa                             ReportedAntibioticUsage DaysSinceExperimen~1
         <chr>                            <list>                  <list>              
       1 4b5eeb300368260019c1fbc7a3c718fc <dbl [1]>               <dbl [1]>           
       2 fe30ff0f71a38a39cf1717ec2be3a2fc <dbl [1]>               <dbl [1]>           
       3 868528ca947bc57b69ffdf83e6b73bae <dbl [1]>               <dbl [1]>           
       4 154709e160e8cada6bfb21115acc80f5 <dbl [1]>               <dbl [1]>           
       5 1d2e5f3444ca750c85302ceee2473331 <dbl [1]>               <dbl [1]>           
       6 0305a4993ecf2d8ef4149fdfc7592603 <dbl [1]>               <dbl [1]>           
       7 cb2fe0146e2fbcb101050edb996a0ee2 <dbl [1]>               <dbl [1]>           
       8 997056ba80681bbbdd5d09aa591eadc0 <dbl [1]>               <dbl [1]>           
       9 bfbed36e63b69fec4627424163d20118 <dbl [1]>               <dbl [1]>           
      10 90d32ffe026535b392c0bad850f213c4 <dbl [1]>               <dbl [1]>           
      # ... with 171 more rows, and abbreviated variable name
      #   1: DaysSinceExperimentStart
      
      $summary$effectsize
      # A tibble: 181 x 3
         taxa                             ReportedAntibioticUsage DaysSinceExperimen~1
         <chr>                            <list>                  <list>              
       1 4b5eeb300368260019c1fbc7a3c718fc <dbl [1]>               <dbl [1]>           
       2 fe30ff0f71a38a39cf1717ec2be3a2fc <dbl [1]>               <dbl [1]>           
       3 868528ca947bc57b69ffdf83e6b73bae <dbl [1]>               <dbl [1]>           
       4 154709e160e8cada6bfb21115acc80f5 <dbl [1]>               <dbl [1]>           
       5 1d2e5f3444ca750c85302ceee2473331 <dbl [1]>               <dbl [1]>           
       6 0305a4993ecf2d8ef4149fdfc7592603 <dbl [1]>               <dbl [1]>           
       7 cb2fe0146e2fbcb101050edb996a0ee2 <dbl [1]>               <dbl [1]>           
       8 997056ba80681bbbdd5d09aa591eadc0 <dbl [1]>               <dbl [1]>           
       9 bfbed36e63b69fec4627424163d20118 <dbl [1]>               <dbl [1]>           
      10 90d32ffe026535b392c0bad850f213c4 <dbl [1]>               <dbl [1]>           
      # ... with 171 more rows, and abbreviated variable name
      #   1: DaysSinceExperimentStart
…
