…
      $summary
      $summary$nsig
      # A tibble: 181 x 3
         taxa                             ReportedAntibioticUsage DaysSinceExperimen~1
         <chr>                                              <int>                <int>
       1 0160e14a78b18b903618f11bc732746e                       0                    0
       2 01e0b7ac306895be84179f2715af269b                       1                    0
       3 02878fe3ccc81d4c884ca5574178d6a0                       0                    0
       4 02ef9a59d6da8b642271166d3ffd1b52                       0                    0
       5 0305a4993ecf2d8ef4149fdfc7592603                       0                    0
       6 047b7fb62a5e9d2711e639ae1cb1519a                       0                    0
       7 052128d7d424728578efe7852b0afd0d                       0                    0
       8 0741ae033054073fece98b9948ec4387                       0                    0
       9 09fc3d8a98c2ca72c69b63a51b5b564e                       0                    0
      10 0a69950e803a5d9e7166c450e44f43cf                       0                    0
      # ... with 171 more rows, and abbreviated variable name
      #   1: DaysSinceExperimentStart
      
      $summary$pvalue
      # A tibble: 181 x 3
         taxa                             ReportedAntibioticUsage DaysSinceExperimen~1
         <chr>                            <list>                  <list>              
       1 0160e14a78b18b903618f11bc732746e <dbl [1]>               <dbl [1]>           
       2 01e0b7ac306895be84179f2715af269b <dbl [1]>               <dbl [1]>           
       3 02878fe3ccc81d4c884ca5574178d6a0 <dbl [1]>               <dbl [1]>           
       4 02ef9a59d6da8b642271166d3ffd1b52 <dbl [1]>               <dbl [1]>           
       5 0305a4993ecf2d8ef4149fdfc7592603 <dbl [1]>               <dbl [1]>           
       6 047b7fb62a5e9d2711e639ae1cb1519a <dbl [1]>               <dbl [1]>           
       7 052128d7d424728578efe7852b0afd0d <dbl [1]>               <dbl [1]>           
       8 0741ae033054073fece98b9948ec4387 <dbl [1]>               <dbl [1]>           
       9 09fc3d8a98c2ca72c69b63a51b5b564e <dbl [1]>               <dbl [1]>           
      10 0a69950e803a5d9e7166c450e44f43cf <dbl [1]>               <dbl [1]>           
      # ... with 171 more rows, and abbreviated variable name
      #   1: DaysSinceExperimentStart
      
      $summary$qvalue
      # A tibble: 181 x 3
         taxa                             ReportedAntibioticUsage DaysSinceExperimen~1
         <chr>                            <list>                  <list>              
       1 0160e14a78b18b903618f11bc732746e <dbl [1]>               <dbl [1]>           
       2 01e0b7ac306895be84179f2715af269b <dbl [1]>               <dbl [1]>           
       3 02878fe3ccc81d4c884ca5574178d6a0 <dbl [1]>               <dbl [1]>           
       4 02ef9a59d6da8b642271166d3ffd1b52 <dbl [1]>               <dbl [1]>           
       5 0305a4993ecf2d8ef4149fdfc7592603 <dbl [1]>               <dbl [1]>           
       6 047b7fb62a5e9d2711e639ae1cb1519a <dbl [1]>               <dbl [1]>           
       7 052128d7d424728578efe7852b0afd0d <dbl [1]>               <dbl [1]>           
       8 0741ae033054073fece98b9948ec4387 <dbl [1]>               <dbl [1]>           
       9 09fc3d8a98c2ca72c69b63a51b5b564e <dbl [1]>               <dbl [1]>           
      10 0a69950e803a5d9e7166c450e44f43cf <dbl [1]>               <dbl [1]>           
      # ... with 171 more rows, and abbreviated variable name
      #   1: DaysSinceExperimentStart
      
      $summary$effectsize
      # A tibble: 181 x 3
         taxa                             ReportedAntibioticUsage DaysSinceExperimen~1
         <chr>                            <list>                  <list>              
       1 0160e14a78b18b903618f11bc732746e <dbl [1]>               <dbl [1]>           
       2 01e0b7ac306895be84179f2715af269b <dbl [1]>               <dbl [1]>           
       3 02878fe3ccc81d4c884ca5574178d6a0 <dbl [1]>               <dbl [1]>           
       4 02ef9a59d6da8b642271166d3ffd1b52 <dbl [1]>               <dbl [1]>           
       5 0305a4993ecf2d8ef4149fdfc7592603 <dbl [1]>               <dbl [1]>           
       6 047b7fb62a5e9d2711e639ae1cb1519a <dbl [1]>               <dbl [1]>           
       7 052128d7d424728578efe7852b0afd0d <dbl [1]>               <dbl [1]>           
       8 0741ae033054073fece98b9948ec4387 <dbl [1]>               <dbl [1]>           
       9 09fc3d8a98c2ca72c69b63a51b5b564e <dbl [1]>               <dbl [1]>           
      10 0a69950e803a5d9e7166c450e44f43cf <dbl [1]>               <dbl [1]>           
      # ... with 171 more rows, and abbreviated variable name
      #   1: DaysSinceExperimentStart
…
